{
  "project_info": {
    "project_number": "639981749073",
    "firebase_url": "https://omr-leds-qa.firebaseio.com",
    "project_id": "omr-leds-qa",
    "storage_bucket": "omr-leds-qa.appspot.com"
  },
  "client": [
    {
      "client_info": {
        "mobilesdk_app_id": "1:639981749073:android:a2c2e1ae91c013de",
        "android_client_info": {
          "package_name": "com.starco.control.quality"
        }
      },
      "oauth_client": [
        {
          "client_id": "639981749073-17bv0nukdcqrl5ribou1hhlls0hu646q.apps.googleusercontent.com",
          "client_type": 3
        }
      ],
      "api_key": [
        {
          "current_key": "AIzaSyC6WIlArt5le8rYPOe420Ugca2ZmSf-ryk"
        }
      ],
      "services": {
        "appinvite_service": {
          "other_platform_oauth_client": [
            {
              "client_id": "639981749073-17bv0nukdcqrl5ribou1hhlls0hu646q.apps.googleusercontent.com",
              "client_type": 3
            }
          ]
        }
      }
    }
  ],
  "configuration_version": "1"
}